Practica3/Parte1/simulation/qsim/anodo.msim.vcd
$comment
	File created using the following command:
		vcd file anodo.msim.vcd -direction
$end
$date
	Wed Jun 16 18:57:10 2021
$end
$version
	ModelSim Version 10.1d
$end
$timescale
	1ps
$end
$scope module anodo_vlg_vec_tst $end
$var reg 1 ! x $end
$var reg 3 " y [2:0] $end
$var wire 1 # z [7] $end
$var wire 1 $ z [6] $end
$var wire 1 % z [5] $end
$var wire 1 & z [4] $end
$var wire 1 ' z [3] $end
$var wire 1 ( z [2] $end
$var wire 1 ) z [1] $end
$var wire 1 * z [0] $end
$var wire 1 + sampler $end
$scope module i1 $end
$var wire 1 , gnd $end
$var wire 1 - vcc $end
$var wire 1 . unknown $end
$var tri1 1 / devclrn $end
$var tri1 1 0 devpor $end
$var tri1 1 1 devoe $end
$var wire 1 2 z[0]~output_o $end
$var wire 1 3 z[1]~output_o $end
$var wire 1 4 z[2]~output_o $end
$var wire 1 5 z[3]~output_o $end
$var wire 1 6 z[4]~output_o $end
$var wire 1 7 z[5]~output_o $end
$var wire 1 8 z[6]~output_o $end
$var wire 1 9 z[7]~output_o $end
$var wire 1 : x~input_o $end
$var wire 1 ; y[1]~input_o $end
$var wire 1 < y[2]~input_o $end
$var wire 1 = y[0]~input_o $end
$var wire 1 > Mux6~0_combout $end
$var wire 1 ? Mux5~0_combout $end
$var wire 1 @ Mux4~0_combout $end
$var wire 1 A Mux3~0_combout $end
$var wire 1 B Mux2~0_combout $end
$var wire 1 C Mux1~0_combout $end
$upscope $end
$upscope $end
$enddefinitions $end
#0
$dumpvars
0!
b0 "
1*
1)
0(
0'
0&
0%
0$
0#
x+
0,
1-
x.
1/
10
11
12
13
04
05
06
07
08
09
0:
0;
0<
0=
0>
0?
0@
0A
0B
0C
$end
#50000
b1 "
1=
0+
1A
1@
1?
19
16
15
14
1#
1&
1'
1(
#100000
b11 "
b10 "
0=
1;
1+
1>
0?
03
04
0)
0(
#150000
b11 "
1=
0+
0A
09
06
0#
0&
#200000
b111 "
b101 "
b100 "
0=
0;
1<
1+
1C
0@
18
05
1$
0'
#250000
b101 "
1=
0+
1@
15
1'
#300000
b111 "
b110 "
0=
1;
1+
0@
05
0'
#350000
b111 "
1=
0+
0C
1@
08
15
0$
1'
#400000
1!
b11 "
b1 "
b0 "
1:
0=
0;
0<
1+
0>
1A
1?
13
19
16
14
1)
1#
1&
1(
#450000
b1 "
1=
0+
#500000
b11 "
b10 "
0=
1;
1+
1>
1B
0A
0?
03
17
09
06
04
0)
1%
0#
0&
0(
#550000
b11 "
1=
0+
1C
0B
0@
18
07
05
1$
0%
0'
#600000
b111 "
b101 "
b100 "
0=
0;
1<
1+
0C
1A
1@
08
19
16
15
0$
1#
1&
1'
#650000
b101 "
1=
0+
0>
0A
0@
13
09
06
05
1)
0#
0&
0'
#700000
b111 "
b110 "
0=
1;
1+
#750000
b111 "
1=
0+
#800000
0!
b11 "
b1 "
b0 "
0:
0=
0;
0<
1+
#850000
b1 "
1=
0+
1A
1@
1?
19
16
15
14
1#
1&
1'
1(
#900000
b11 "
b10 "
0=
1;
1+
1>
0?
03
04
0)
0(
#950000
b11 "
1=
0+
0A
09
06
0#
0&
