Practica2/P2_SegundaParte/simulation/qsim/Segunda_Parte.msim.vcd
$comment
	File created using the following command:
		vcd file Segunda_Parte.msim.vcd -direction
$end
$date
	Mon Jun 14 02:42:18 2021
$end
$version
	ModelSim Version 10.1d
$end
$timescale
	1ps
$end
$scope module Segunda_Parte_vlg_vec_tst $end
$var reg 4 ! E [3:0] $end
$var wire 1 " X $end
$var wire 1 # Y $end
$var wire 1 $ Z $end
$var wire 1 % sampler $end
$scope module i1 $end
$var wire 1 & gnd $end
$var wire 1 ' vcc $end
$var wire 1 ( unknown $end
$var tri1 1 ) devclrn $end
$var tri1 1 * devpor $end
$var tri1 1 + devoe $end
$var wire 1 , X~output_o $end
$var wire 1 - Y~output_o $end
$var wire 1 . Z~output_o $end
$var wire 1 / E[2]~input_o $end
$var wire 1 0 E[0]~input_o $end
$var wire 1 1 E[3]~input_o $end
$var wire 1 2 E[1]~input_o $end
$var wire 1 3 X~0_combout $end
$var wire 1 4 Y~0_combout $end
$var wire 1 5 Z~0_combout $end
$upscope $end
$upscope $end
$enddefinitions $end
#0
$dumpvars
b0 !
0"
1#
1$
x%
0&
1'
x(
1)
1*
1+
0,
1-
1.
0/
00
01
02
03
14
05
$end
#50000
b1 !
10
0%
15
04
13
0.
0-
1,
0$
0#
1"
#100000
b11 !
b10 !
00
12
1%
#150000
b11 !
10
0%
05
1.
1$
#200000
b111 !
b101 !
b100 !
00
02
1/
1%
15
0.
0$
#250000
b101 !
10
0%
05
1.
1$
#300000
b111 !
b110 !
00
12
1%
#350000
b111 !
10
0%
15
14
0.
1-
0$
1#
#400000
b1111 !
b1011 !
b1001 !
b1000 !
00
02
0/
11
1%
04
0-
0#
#450000
b1001 !
10
0%
05
1.
1$
#500000
b1011 !
b1010 !
00
12
1%
#550000
b1011 !
10
0%
15
14
0.
1-
0$
1#
#600000
b1111 !
b1101 !
b1100 !
00
02
1/
1%
05
04
1.
0-
1$
0#
#650000
b1101 !
10
0%
15
14
0.
1-
0$
1#
#700000
b1111 !
b1110 !
00
12
1%
#750000
b1111 !
10
0%
05
1.
1$
#800000
b111 !
b11 !
b1 !
b0 !
00
02
0/
01
1%
03
0,
0"
#850000
b1 !
10
0%
15
04
13
0.
0-
1,
0$
0#
1"
#900000
b11 !
b10 !
00
12
1%
#950000
b11 !
10
0%
05
1.
1$
