Practica2/P2_PrimeraParte/simulation/qsim/codvhd1.msim.vcd
$comment
	File created using the following command:
		vcd file codvhd1.msim.vcd -direction
$end
$date
	Mon Jun 14 02:31:10 2021
$end
$version
	ModelSim Version 10.1d
$end
$timescale
	1ps
$end
$scope module codvhd1_vlg_vec_tst $end
$var reg 4 ! E [3:0] $end
$var wire 1 " P $end
$var wire 1 # S $end
$var wire 1 $ sampler $end
$scope module i1 $end
$var wire 1 % gnd $end
$var wire 1 & vcc $end
$var wire 1 ' unknown $end
$var tri1 1 ( devclrn $end
$var tri1 1 ) devpor $end
$var tri1 1 * devoe $end
$var wire 1 + S~output_o $end
$var wire 1 , P~output_o $end
$var wire 1 - E[3]~input_o $end
$var wire 1 . E[1]~input_o $end
$var wire 1 / E[0]~input_o $end
$var wire 1 0 E[2]~input_o $end
$var wire 1 1 S~0_combout $end
$var wire 1 2 P~0_combout $end
$upscope $end
$upscope $end
$enddefinitions $end
#0
$dumpvars
b0 !
0"
0#
x$
0%
1&
x'
1(
1)
1*
0+
0,
0-
0.
0/
00
01
02
$end
#50000
b1 !
1/
0$
#100000
b11 !
b10 !
0/
1.
1$
12
1,
1"
#150000
b11 !
1/
0$
#200000
b111 !
b101 !
b100 !
0/
0.
10
1$
02
0,
0"
#250000
b101 !
1/
0$
#300000
b111 !
b110 !
0/
1.
1$
11
12
1+
1,
1#
1"
#350000
b111 !
1/
0$
01
0+
0#
#400000
b1111 !
b1011 !
b1001 !
b1000 !
0/
0.
00
1-
1$
#450000
b1001 !
1/
0$
#500000
b1011 !
b1010 !
0/
1.
1$
#550000
b1011 !
1/
0$
11
1+
1#
#600000
b1111 !
b1101 !
b1100 !
0/
0.
10
1$
01
0+
0#
#650000
b1101 !
1/
0$
11
1+
1#
#700000
b1111 !
b1110 !
0/
1.
1$
#750000
b1111 !
1/
0$
#800000
b111 !
b11 !
b1 !
b0 !
0/
0.
00
0-
1$
01
02
0+
0,
0#
0"
#850000
b1 !
1/
0$
#900000
b11 !
b10 !
0/
1.
1$
12
1,
1"
#950000
b11 !
1/
0$
