Practica3/Parte2/simulation/qsim/Ejercicio_Previo.msim.vcd
$comment
	File created using the following command:
		vcd file Ejercicio_Previo.msim.vcd -direction
$end
$date
	Sun Jun 27 17:00:20 2021
$end
$version
	ModelSim Version 10.1d
$end
$timescale
	1ps
$end
$scope module Ejercicio_Previo_vlg_vec_tst $end
$var reg 1 ! a $end
$var reg 1 " b $end
$var reg 1 # c $end
$var reg 1 $ d $end
$var wire 1 % display $end
$var wire 1 & z [3] $end
$var wire 1 ' z [2] $end
$var wire 1 ( z [1] $end
$var wire 1 ) z [0] $end
$var wire 1 * sampler $end
$scope module i1 $end
$var wire 1 + gnd $end
$var wire 1 , vcc $end
$var wire 1 - unknown $end
$var tri1 1 . devclrn $end
$var tri1 1 / devpor $end
$var tri1 1 0 devoe $end
$var wire 1 1 b~input_o $end
$var wire 1 2 z[0]~output_o $end
$var wire 1 3 z[1]~output_o $end
$var wire 1 4 z[2]~output_o $end
$var wire 1 5 z[3]~output_o $end
$var wire 1 6 display~output_o $end
$var wire 1 7 d~input_o $end
$var wire 1 8 a~input_o $end
$var wire 1 9 c~input_o $end
$var wire 1 : comb~15_combout $end
$var wire 1 ; comb~16_combout $end
$var wire 1 < z[0]$latch~combout $end
$var wire 1 = comb~18_combout $end
$var wire 1 > comb~17_combout $end
$var wire 1 ? z[1]$latch~combout $end
$var wire 1 @ comb~12_combout $end
$var wire 1 A comb~11_combout $end
$var wire 1 B z[2]$latch~combout $end
$var wire 1 C comb~14_combout $end
$var wire 1 D comb~13_combout $end
$var wire 1 E z[3]$latch~combout $end
$upscope $end
$upscope $end
$enddefinitions $end
#0
$dumpvars
0!
0"
0#
0$
0%
0)
0(
0'
0&
x*
0+
1,
x-
1.
1/
10
01
02
03
04
05
06
07
08
09
1:
0;
0<
0=
1>
0?
0@
1A
0B
0C
1D
0E
$end
#50000
1$
17
0*
0A
1@
0>
1=
1B
1?
14
13
1'
1(
#100000
1#
0$
19
07
1*
#150000
1$
17
0*
0D
1C
1>
0=
1;
0:
1E
0?
1<
15
03
12
1&
0(
1)
#200000
1"
0#
0$
11
09
07
1*
0;
1:
0<
02
0)
#250000
1$
17
0*
1A
0@
1;
0:
0B
1<
04
12
0'
1)
#300000
1#
0$
19
07
1*
1D
0C
0E
05
0&
#350000
1$
17
0*
0;
1:
0<
02
0)
#400000
1!
0"
0#
0$
18
01
09
07
1*
0D
1C
1E
15
1&
#450000
1$
17
0*
0A
1@
0>
1=
1B
1?
14
13
1'
1(
#500000
1#
0$
19
07
1*
0C
0@
0=
0:
#550000
1$
17
0*
1D
1A
1>
1:
0E
0B
0?
05
04
03
0&
0'
0(
#600000
1"
0#
0$
11
09
07
1*
0>
1=
1?
13
1(
#650000
1$
17
0*
1>
0=
0?
03
0(
#700000
1#
0$
19
07
1*
#750000
1$
17
0*
#800000
0!
0"
0#
0$
08
01
09
07
1*
#850000
1$
17
0*
0A
1@
0>
1=
1B
1?
14
13
1'
1(
#900000
1#
0$
19
07
1*
#950000
1$
17
0*
0D
1C
1>
0=
1;
0:
1E
0?
1<
15
03
12
1&
0(
1)
